\relax 
\catcode `"\active 
\catcode `<\active 
\catcode `>\active 
\@nameuse{es@quoting}
\babel@aux{spanish}{}
\citation{A.HuergoLuis2018}
\citation{A.HuergoLuis2018}
\@writefile{toc}{\contentsline {section}{\numberline {1}Introducci\IeC {\'o}n}{1}\protected@file@percent }
\@writefile{toc}{\contentsline {subsection}{\numberline {1.1}Suma Binaria}{1}\protected@file@percent }
\@writefile{lot}{\contentsline {table}{\numberline {1}{\ignorespaces Reglas de suma aritm\IeC {\'e}tica en binario\relax }}{1}\protected@file@percent }
\providecommand*\caption@xref[2]{\@setref\relax\@undefined{#1}}
\newlabel{sumaBinariaBasica}{{1}{1}}
\@writefile{toc}{\contentsline {section}{\numberline {2}Desarrollo}{1}\protected@file@percent }
\@writefile{toc}{\contentsline {subsection}{\numberline {2.1}Pre\IeC {\'a}mbulo}{1}\protected@file@percent }
\@writefile{lof}{\contentsline {figure}{\numberline {1}{\ignorespaces Tabla de verdad Suma binaria\relax }}{2}\protected@file@percent }
\newlabel{fig:sumaBinaria}{{1}{2}}
\@writefile{toc}{\contentsline {subsection}{\numberline {2.2}Suma Binaria}{2}\protected@file@percent }
\newlabel{funcionBoolBin}{{1}{2}}
\@writefile{toc}{\contentsline {subsection}{\numberline {2.3}Diagrama L\IeC {\'o}gico}{2}\protected@file@percent }
\newlabel{fig:diagramaFuncBool}{{2a}{3}}
\newlabel{sub@fig:diagramaFuncBool}{{a}{3}}
\newlabel{fig:xorHalfAdder}{{2b}{3}}
\newlabel{sub@fig:xorHalfAdder}{{b}{3}}
\@writefile{lof}{\contentsline {figure}{\numberline {2}{\ignorespaces Propuestas Medio Sumador\relax }}{3}\protected@file@percent }
\newlabel{fig:diagramaMedioSumador}{{2}{3}}
\@writefile{lof}{\contentsline {figure}{\numberline {3}{\ignorespaces Sumador Completo\relax }}{3}\protected@file@percent }
\newlabel{fig:diagramaSumadorCompleto}{{3}{3}}
\@writefile{toc}{\contentsline {section}{\numberline {3}Cuestionario}{3}\protected@file@percent }
\@writefile{toc}{\contentsline {subsection}{\numberline {3.1}\IeC {\textquestiondown }Qu\IeC {\'e} es un sumador?}{3}\protected@file@percent }
\@writefile{lof}{\contentsline {figure}{\numberline {4}{\ignorespaces Diagrama L\IeC {\'o}gico Sumador 8 bit\relax }}{4}\protected@file@percent }
\newlabel{fig:DiagramaCircuito}{{4}{4}}
\@writefile{toc}{\contentsline {subsection}{\numberline {3.2}\IeC {\textquestiondown }Qu\IeC {\'e} es un medio sumador o semisumador? }{4}\protected@file@percent }
\bibstyle{plain}
\bibdata{Referencias.bib}
\bibcite{A.HuergoLuis2018}{{1}{}{{}}{{}}}
\providecommand\NAT@force@numbers{}\NAT@force@numbers
\@writefile{toc}{\contentsline {section}{\numberline {4}Conclusiones}{5}\protected@file@percent }
