\babel@toc {spanish}{}
\contentsline {section}{\numberline {1}Introducci\IeC {\'o}n}{1}% 
\contentsline {subsection}{\numberline {1.1}Suma Binaria}{1}% 
\contentsline {section}{\numberline {2}Desarrollo}{1}% 
\contentsline {subsection}{\numberline {2.1}Pre\IeC {\'a}mbulo}{1}% 
\contentsline {subsection}{\numberline {2.2}Suma Binaria}{2}% 
\contentsline {subsection}{\numberline {2.3}Diagrama L\IeC {\'o}gico}{2}% 
\contentsline {section}{\numberline {3}Cuestionario}{3}% 
\contentsline {subsection}{\numberline {3.1}\IeC {\textquestiondown }Qu\IeC {\'e} es un sumador?}{3}% 
\contentsline {subsection}{\numberline {3.2}\IeC {\textquestiondown }Qu\IeC {\'e} es un medio sumador o semisumador? }{4}% 
\contentsline {section}{\numberline {4}Conclusiones}{5}% 
