\relax 
\catcode `"\active 
\catcode `<\active 
\catcode `>\active 
\@nameuse{es@quoting}
\babel@aux{spanish}{}
\@writefile{toc}{\contentsline {section}{\numberline {1}Obejtivo del ejercicio}{1}\protected@file@percent }
\@writefile{toc}{\contentsline {section}{\numberline {2}L\IeC {\'o}gica combinacional}{1}\protected@file@percent }
