\relax 
\catcode `"\active 
\catcode `<\active 
\catcode `>\active 
\@nameuse{es@quoting}
\select@language{spanish}
\@writefile{toc}{\select@language{spanish}}
\@writefile{lof}{\select@language{spanish}}
\@writefile{lot}{\select@language{spanish}}
\@writefile{toc}{\contentsline {section}{\numberline {1}Resistencias Pull Up y Pull Down}{1}}
\@writefile{lof}{\contentsline {figure}{\numberline {1}{\ignorespaces Escalas de voltajes en circuito combinacional\relax }}{1}}
\@writefile{toc}{\contentsline {subsection}{\numberline {1.1}Resistencias Pull Up}{1}}
\@writefile{toc}{\contentsline {subsection}{\numberline {1.2}Resistencias Pull Down}{1}}
\@writefile{lof}{\contentsline {figure}{\numberline {2}{\ignorespaces Resistencias de pull up\relax }}{2}}
\providecommand*\caption@xref[2]{\@setref\relax\@undefined{#1}}
\newlabel{pullup}{{2}{2}}
\newlabel{fig:pull-up-abierto}{{3a}{2}}
\newlabel{sub@fig:pull-up-abierto}{{a}{2}}
\newlabel{fig:pull-up-cerrado}{{3b}{2}}
\newlabel{sub@fig:pull-up-cerrado}{{b}{2}}
\@writefile{lof}{\contentsline {figure}{\numberline {3}{\ignorespaces Casos en switch abierto y cerrado\relax }}{2}}
\newlabel{fig:pull-up}{{3}{2}}
\newlabel{fig:pull-down-abierto}{{4a}{2}}
\newlabel{sub@fig:pull-down-abierto}{{a}{2}}
\newlabel{fig:pull-down-cerrado}{{4b}{2}}
\newlabel{sub@fig:pull-down-cerrado}{{b}{2}}
\@writefile{lof}{\contentsline {figure}{\numberline {4}{\ignorespaces Casos en switch abierto y cerrado\relax }}{2}}
\newlabel{fig:pull-down}{{4}{2}}
\@writefile{toc}{\contentsline {subsection}{\numberline {1.3}Valor de la resistencia}{2}}
