\relax 
\catcode `"\active 
\catcode `<\active 
\catcode `>\active 
\@nameuse{es@quoting}
\select@language{spanish}
\@writefile{toc}{\select@language{spanish}}
\@writefile{lof}{\select@language{spanish}}
\@writefile{lot}{\select@language{spanish}}
\@writefile{toc}{\contentsline {section}{\numberline {1}Obejtivo del ejercicio}{1}}
\@writefile{toc}{\contentsline {section}{\numberline {2}Inversor l\IeC {\'o}gico}{1}}
\@writefile{lof}{\contentsline {figure}{\numberline {1}{\ignorespaces Compuerta NOT con transistores\relax }}{1}}
\@writefile{toc}{\contentsline {section}{\numberline {3}Simulaci\IeC {\'o}n}{1}}
\@writefile{lof}{\contentsline {figure}{\numberline {2}{\ignorespaces NOT Logisim\relax }}{1}}
