\relax 
\catcode `"\active 
\catcode `<\active 
\catcode `>\active 
\@nameuse{es@quoting}
\select@language{spanish}
\@writefile{toc}{\select@language{spanish}}
\@writefile{lof}{\select@language{spanish}}
\@writefile{lot}{\select@language{spanish}}
\@writefile{toc}{\contentsline {section}{\numberline {1}Seguridad en la ejecuci\IeC {\'o}n}{1}}
\@writefile{toc}{\contentsline {section}{\numberline {2}Objetivos de aprendizaje}{1}}
\@writefile{toc}{\contentsline {section}{\numberline {3}Material y Equipo}{1}}
\citation{BolanosD.2015}
\citation{RualthGustavoBravoAnaya1891}
\citation{RualthGustavoBravoAnaya1891}
\@writefile{toc}{\contentsline {section}{\numberline {4}Actividad de investigaci\IeC {\'o}n previa}{2}}
\@writefile{toc}{\contentsline {subsection}{\numberline {4.1}Ley de Ohm}{2}}
\@writefile{toc}{\contentsline {subsection}{\numberline {4.2}Primera ley de corrientes de Kirchhoff (L.C.K.)}{2}}
\@writefile{toc}{\contentsline {subsection}{\numberline {4.3}Segunda ley de tensiones de Kirchhoff (L.T.K)}{2}}
\@writefile{toc}{\contentsline {section}{\numberline {5}Mapas}{2}}
\@writefile{lot}{\contentsline {table}{\numberline {1}{\ignorespaces Mapa de Karnaugh para segmento $a$\relax }}{2}}
\@writefile{toc}{\contentsline {subsection}{\numberline {5.1}Circuito}{2}}
\@writefile{lof}{\contentsline {figure}{\numberline {1}{\ignorespaces Circuito de trabajo con resistores\relax }}{3}}
\providecommand*\caption@xref[2]{\@setref\relax\@undefined{#1}}
\newlabel{fig:Circuito}{{1}{3}}
\newlabel{fig:VoltCorr}{{2a}{3}}
\newlabel{sub@fig:VoltCorr}{{a}{3}}
\newlabel{fig:ResComp}{{2b}{3}}
\newlabel{sub@fig:ResComp}{{b}{3}}
\@writefile{lof}{\contentsline {figure}{\numberline {2}{\ignorespaces Tablas de experimentaci\IeC {\'o}n\relax }}{3}}
\newlabel{tablas}{{2}{3}}
\@writefile{toc}{\contentsline {subsection}{\numberline {5.2}Se\IeC {\~n}ales}{3}}
\bibstyle{plain}
\bibdata{Referencias.bib}
\bibcite{RualthGustavoBravoAnaya1891}{{1}{}{{}}{{}}}
\bibcite{BolanosD.2015}{{2}{}{{}}{{}}}
\providecommand\NAT@force@numbers{}\NAT@force@numbers
\@writefile{lof}{\contentsline {figure}{\numberline {3}{\ignorespaces Se\IeC {\~n}al Senoidal de 1[KHz] vista en el osciloscopio\relax }}{4}}
\newlabel{senial}{{3}{4}}
\@writefile{toc}{\contentsline {section}{\numberline {6}Conclusiones}{4}}
\@writefile{toc}{\contentsline {section}{\numberline {7}Referencias}{4}}
