\relax 
\catcode `"\active 
\catcode `<\active 
\catcode `>\active 
\@nameuse{es@quoting}
\babel@aux{spanish}{}
\@writefile{toc}{\contentsline {section}{\numberline {1}Seguridad en la ejecuci\IeC {\'o}n}{1}\protected@file@percent }
\@writefile{toc}{\contentsline {section}{\numberline {2}Objetivos de aprendizaje}{1}\protected@file@percent }
\@writefile{toc}{\contentsline {section}{\numberline {3}Material y Equipo}{1}\protected@file@percent }
\@writefile{toc}{\contentsline {section}{\numberline {4}Introducci\IeC {\'o}n}{2}\protected@file@percent }
\@writefile{toc}{\contentsline {section}{\numberline {5}Actividad de Investigaci\IeC {\'o}n Previa}{2}\protected@file@percent }
\@writefile{toc}{\contentsline {subsection}{\numberline {5.1}Inversor L\IeC {\'o}gico}{2}\protected@file@percent }
\@writefile{lof}{\contentsline {figure}{\numberline {1}{\ignorespaces Compuerta NOT con transistores\relax }}{2}\protected@file@percent }
\@writefile{toc}{\contentsline {section}{\numberline {6}Desarrollo}{2}\protected@file@percent }
\@writefile{toc}{\contentsline {subsection}{\numberline {6.1}Planteamiento del problema}{2}\protected@file@percent }
\@writefile{toc}{\contentsline {subsection}{\numberline {6.2}Actividad}{2}\protected@file@percent }
\@writefile{lof}{\contentsline {figure}{\numberline {2}{\ignorespaces Compuertas NAND como inversores\relax }}{3}\protected@file@percent }
\providecommand*\caption@xref[2]{\@setref\relax\@undefined{#1}}
\newlabel{fig:planProb}{{2}{3}}
\@writefile{lot}{\contentsline {table}{\numberline {1}{\ignorespaces Tabla de Resultados\relax }}{3}\protected@file@percent }
\@writefile{lot}{\contentsline {table}{\numberline {2}{\ignorespaces Tabla de Verdad circuito figura \ref  {fig:planProb}\relax }}{3}\protected@file@percent }
\@writefile{toc}{\contentsline {subsection}{\numberline {6.3}Inversores en paralelo}{3}\protected@file@percent }
\@writefile{lof}{\contentsline {figure}{\numberline {3}{\ignorespaces NAND\relax }}{3}\protected@file@percent }
\newlabel{fig:parallelNAND}{{3}{3}}
\newlabel{fig:0V}{{4a}{4}}
\newlabel{sub@fig:0V}{{a}{4}}
\newlabel{fig:5V}{{4b}{4}}
\newlabel{sub@fig:5V}{{b}{4}}
\@writefile{lof}{\contentsline {figure}{\numberline {4}{\ignorespaces Voltajes, Corriente y Potencia\relax }}{4}\protected@file@percent }
\newlabel{calcParallelNAND}{{4}{4}}
\@writefile{toc}{\contentsline {subsection}{\numberline {6.4}Inversores en Serie}{4}\protected@file@percent }
\@writefile{lof}{\contentsline {figure}{\numberline {5}{\ignorespaces NAND como inversor en serie\relax }}{4}\protected@file@percent }
\newlabel{fig:NANDserieINV}{{5}{4}}
\@writefile{lof}{\contentsline {figure}{\numberline {6}{\ignorespaces Se\IeC {\~n}al obtenida de circuito figura \ref  {fig:NANDserieINV}\relax }}{4}\protected@file@percent }
\newlabel{fig:grafNANDserieINV}{{6}{4}}
\@writefile{toc}{\contentsline {subsection}{\numberline {6.5}Actividad}{4}\protected@file@percent }
\@writefile{lof}{\contentsline {figure}{\numberline {7}{\ignorespaces NAND como inversor en serie\relax }}{5}\protected@file@percent }
\newlabel{fig:ABXY}{{7}{5}}
\@writefile{lof}{\contentsline {figure}{\numberline {8}{\ignorespaces Se\IeC {\~n}al obtenida de circuito figura \ref  {fig:ABXY}\relax }}{5}\protected@file@percent }
\newlabel{fig:grafABXY}{{8}{5}}
\@writefile{toc}{\contentsline {section}{\numberline {7}Cuestionario}{5}\protected@file@percent }
\@writefile{toc}{\contentsline {subsection}{\numberline {7.1}\IeC {\textquestiondown }Qu\IeC {\'e} es un circuito integrado com\IeC {\'u}n?}{5}\protected@file@percent }
\@writefile{toc}{\contentsline {subsection}{\numberline {7.2}\IeC {\textquestiondown }Qu\IeC {\'e} es una funci\IeC {\'o}n de transferencia?}{5}\protected@file@percent }
\@writefile{toc}{\contentsline {subsection}{\numberline {7.3}\IeC {\textquestiondown }Qu\IeC {\'e} es un inversor l\IeC {\'o}gico?}{6}\protected@file@percent }
\@writefile{toc}{\contentsline {section}{\numberline {8}Conclusiones}{6}\protected@file@percent }
