\relax 
\catcode `"\active 
\catcode `<\active 
\catcode `>\active 
\@nameuse{es@quoting}
\babel@aux{spanish}{}
\@writefile{toc}{\contentsline {section}{\numberline {1}Seguridad en la ejecuci\IeC {\'o}n}{1}\protected@file@percent }
\@writefile{toc}{\contentsline {section}{\numberline {2}Objetivos de aprendizaje}{1}\protected@file@percent }
\@writefile{toc}{\contentsline {section}{\numberline {3}Material y Equipo}{1}\protected@file@percent }
\@writefile{toc}{\contentsline {section}{\numberline {4}Actividad de investigaci\IeC {\'o}n previa}{1}\protected@file@percent }
\newlabel{aEq}{{1}{1}}
\providecommand*\caption@xref[2]{\@setref\relax\@undefined{#1}}
\newlabel{subfig:KarnaugA}{{1a}{2}}
\newlabel{sub@subfig:KarnaugA}{{a}{2}}
\newlabel{subfig:KarnaugB}{{1b}{2}}
\newlabel{sub@subfig:KarnaugB}{{b}{2}}
\newlabel{subfig:KarnaugC}{{1c}{2}}
\newlabel{sub@subfig:KarnaugC}{{c}{2}}
\@writefile{lof}{\contentsline {figure}{\numberline {1}{\ignorespaces Mapas de Karnaugh para los segmentos $a$, $b$ y $c$\relax }}{2}\protected@file@percent }
\newlabel{fig:KarnaugABC}{{1}{2}}
\newlabel{subfig:KarnaugD}{{2a}{2}}
\newlabel{sub@subfig:KarnaugD}{{a}{2}}
\newlabel{subfig:KarnaugE}{{2b}{2}}
\newlabel{sub@subfig:KarnaugE}{{b}{2}}
\@writefile{lof}{\contentsline {figure}{\numberline {2}{\ignorespaces Mapas de Karnaugh para los segmentos $d$ y $e$\relax }}{2}\protected@file@percent }
\newlabel{fig:KarnaugDE}{{2}{2}}
\newlabel{bcEq}{{2}{2}}
\newlabel{dEq}{{3}{2}}
\newlabel{eEq}{{4}{2}}
\newlabel{subfig:KarnaugF}{{3a}{3}}
\newlabel{sub@subfig:KarnaugF}{{a}{3}}
\newlabel{subfig:KarnaugG}{{3b}{3}}
\newlabel{sub@subfig:KarnaugG}{{b}{3}}
\@writefile{lof}{\contentsline {figure}{\numberline {3}{\ignorespaces Mapas de Karnaugh para los segmentos $f$ y $g$\relax }}{3}\protected@file@percent }
\newlabel{fig:KarnaugFG}{{3}{3}}
\newlabel{fEq}{{5}{3}}
\newlabel{gEq}{{6}{3}}
\@writefile{lof}{\contentsline {figure}{\numberline {4}{\ignorespaces Operaci\IeC {\'o}n Suma\relax }}{3}\protected@file@percent }
\newlabel{fig:suma}{{4}{3}}
