\relax 
\catcode `"\active 
\catcode `<\active 
\catcode `>\active 
\@nameuse{es@quoting}
\babel@aux{spanish}{}
\@writefile{toc}{\contentsline {section}{\numberline {1}Seguridad en la ejecuci\IeC {\'o}n}{1}\protected@file@percent }
\@writefile{toc}{\contentsline {section}{\numberline {2}Objetivos de aprendizaje}{1}\protected@file@percent }
\@writefile{toc}{\contentsline {section}{\numberline {3}Material y Equipo}{2}\protected@file@percent }
\@writefile{toc}{\contentsline {section}{\numberline {4}Introducci\IeC {\'o}n}{2}\protected@file@percent }
\@writefile{toc}{\contentsline {section}{\numberline {5}Actividad de investigaci\IeC {\'o}n previa}{2}\protected@file@percent }
\@writefile{toc}{\contentsline {subsection}{\numberline {5.1}M\IeC {\'e}todo del Dise\IeC {\~n}o Combinacional}{2}\protected@file@percent }
\citation{Mclaren2013}
\@writefile{toc}{\contentsline {section}{\numberline {6}Desarrollo}{3}\protected@file@percent }
\@writefile{toc}{\contentsline {subsection}{\numberline {6.1}Especificaci\IeC {\'o}n el sistema}{3}\protected@file@percent }
\@writefile{toc}{\contentsline {subsection}{\numberline {6.2}Determinaci\IeC {\'o}n de las entradas y salidas}{3}\protected@file@percent }
\@writefile{lof}{\contentsline {figure}{\numberline {1}{\ignorespaces Display de 7 segmentos\relax }}{3}\protected@file@percent }
\providecommand*\caption@xref[2]{\@setref\relax\@undefined{#1}}
\newlabel{fig:display}{{1}{3}}
\@writefile{toc}{\contentsline {subsection}{\numberline {6.3}Tabla de verdad}{3}\protected@file@percent }
\@writefile{lot}{\contentsline {table}{\numberline {1}{\ignorespaces Tabla l\IeC {\'o}gica de dise\IeC {\~n}o del decodificador\relax }}{4}\protected@file@percent }
\newlabel{cuadro:tablaLogica}{{1}{4}}
\@writefile{toc}{\contentsline {subsection}{\numberline {6.4}Mapas de Karnaugh}{4}\protected@file@percent }
\newlabel{subfig:KarnaugA}{{2a}{4}}
\newlabel{sub@subfig:KarnaugA}{{a}{4}}
\newlabel{subfig:KarnaugB}{{2b}{4}}
\newlabel{sub@subfig:KarnaugB}{{b}{4}}
\newlabel{subfig:KarnaugC}{{2c}{4}}
\newlabel{sub@subfig:KarnaugC}{{c}{4}}
\@writefile{lof}{\contentsline {figure}{\numberline {2}{\ignorespaces Mapas de Karnaugh para los segmentos $a$, $b$ y $c$\relax }}{4}\protected@file@percent }
\newlabel{fig:KarnaugABC}{{2}{4}}
\newlabel{aEq}{{1}{4}}
\newlabel{subfig:KarnaugD}{{3a}{5}}
\newlabel{sub@subfig:KarnaugD}{{a}{5}}
\newlabel{subfig:KarnaugE}{{3b}{5}}
\newlabel{sub@subfig:KarnaugE}{{b}{5}}
\@writefile{lof}{\contentsline {figure}{\numberline {3}{\ignorespaces Mapas de Karnaugh para los segmentos $d$ y $e$\relax }}{5}\protected@file@percent }
\newlabel{fig:KarnaugDE}{{3}{5}}
\newlabel{bcEq}{{2}{5}}
\newlabel{dEq}{{3}{5}}
\newlabel{eEq}{{4}{5}}
\newlabel{fEq}{{5}{5}}
\newlabel{gEq}{{6}{5}}
\newlabel{subfig:KarnaugF}{{4a}{6}}
\newlabel{sub@subfig:KarnaugF}{{a}{6}}
\newlabel{subfig:KarnaugG}{{4b}{6}}
\newlabel{sub@subfig:KarnaugG}{{b}{6}}
\@writefile{lof}{\contentsline {figure}{\numberline {4}{\ignorespaces Mapas de Karnaugh para los segmentos $f$ y $g$\relax }}{6}\protected@file@percent }
\newlabel{fig:KarnaugFG}{{4}{6}}
\@writefile{toc}{\contentsline {subsection}{\numberline {6.5}Diagrama L\IeC {\'o}gico}{6}\protected@file@percent }
\@writefile{toc}{\contentsline {subsection}{\numberline {6.6}Implementaci\IeC {\'o}n F\IeC {\'\i }sica}{6}\protected@file@percent }
\@writefile{toc}{\contentsline {subsection}{\numberline {6.7}Funcionamiento}{6}\protected@file@percent }
\@writefile{lof}{\contentsline {figure}{\numberline {5}{\ignorespaces Circuito L\IeC {\'o}gico de trabjo\relax }}{7}\protected@file@percent }
\newlabel{fig:circuitoLogico}{{5}{7}}
\@writefile{toc}{\contentsline {section}{\numberline {7}Cuestionario}{7}\protected@file@percent }
\@writefile{toc}{\contentsline {subsection}{\numberline {7.1}\IeC {\textquestiondown }Qu\IeC {\'e} es una compuerta l\IeC {\'o}gica?}{7}\protected@file@percent }
\@writefile{toc}{\contentsline {subsection}{\numberline {7.2}\IeC {\textquestiondown }Qu\IeC {\'e} es una compuerta AND?}{7}\protected@file@percent }
\bibstyle{plain}
\bibdata{Referencias.bib}
\bibcite{Mclaren2013}{{1}{}{{}}{{}}}
\newlabel{fig:DiagCircuitoFisico}{{6a}{8}}
\newlabel{sub@fig:DiagCircuitoFisico}{{a}{8}}
\newlabel{fig:circuitoFisico}{{6b}{8}}
\newlabel{sub@fig:circuitoFisico}{{b}{8}}
\@writefile{lof}{\contentsline {figure}{\numberline {6}{\ignorespaces Implementaci\IeC {\'o}n f\IeC {\'\i }sica\relax }}{8}\protected@file@percent }
\@writefile{toc}{\contentsline {subsection}{\numberline {7.3}\IeC {\textquestiondown }Qu\IeC {\'e} es una compuerta OR?}{8}\protected@file@percent }
\@writefile{toc}{\contentsline {section}{\numberline {8}Conclusiones}{8}\protected@file@percent }
\providecommand\NAT@force@numbers{}\NAT@force@numbers
\newlabel{fig:0000}{{7a}{9}}
\newlabel{sub@fig:0000}{{a}{9}}
\newlabel{fig:0001}{{7b}{9}}
\newlabel{sub@fig:0001}{{b}{9}}
\newlabel{fig:0010}{{7c}{9}}
\newlabel{sub@fig:0010}{{c}{9}}
\newlabel{fig:0011}{{7d}{9}}
\newlabel{sub@fig:0011}{{d}{9}}
\newlabel{fig:0100}{{7e}{9}}
\newlabel{sub@fig:0100}{{e}{9}}
\newlabel{fig:0101}{{7f}{9}}
\newlabel{sub@fig:0101}{{f}{9}}
\newlabel{fig:0110}{{7g}{9}}
\newlabel{sub@fig:0110}{{g}{9}}
\newlabel{fig:0111}{{7h}{9}}
\newlabel{sub@fig:0111}{{h}{9}}
\newlabel{fig:1000}{{7i}{9}}
\newlabel{sub@fig:1000}{{i}{9}}
\@writefile{lof}{\contentsline {figure}{\numberline {7}{\ignorespaces Prueba con circuito Combinacional\relax }}{9}\protected@file@percent }
\newlabel{fig:circComb}{{7}{9}}
