\relax 
\catcode `"\active 
\catcode `<\active 
\catcode `>\active 
\@nameuse{es@quoting}
\babel@aux{spanish}{}
\@writefile{toc}{\contentsline {section}{\numberline {1}Seguridad en la ejecuci\IeC {\'o}n}{1}\protected@file@percent }
\@writefile{toc}{\contentsline {section}{\numberline {2}Objetivos de aprendizaje}{1}\protected@file@percent }
\@writefile{toc}{\contentsline {section}{\numberline {3}Material y Equipo}{2}\protected@file@percent }
\@writefile{toc}{\contentsline {section}{\numberline {4}Introducci\IeC {\'o}n}{2}\protected@file@percent }
\@writefile{toc}{\contentsline {section}{\numberline {5}Actividad de investigaci\IeC {\'o}n previa}{2}\protected@file@percent }
\@writefile{toc}{\contentsline {subsection}{\numberline {5.1}Resistencias Pull Up y Pull Down}{2}\protected@file@percent }
\@writefile{lof}{\contentsline {figure}{\numberline {1}{\ignorespaces Escalas de voltajes en circuito combinacional\relax }}{2}\protected@file@percent }
\@writefile{toc}{\contentsline {subsubsection}{\numberline {5.1.1}Resistencias Pull Up}{2}\protected@file@percent }
\@writefile{lof}{\contentsline {figure}{\numberline {2}{\ignorespaces Resistencias de pull up\relax }}{3}\protected@file@percent }
\providecommand*\caption@xref[2]{\@setref\relax\@undefined{#1}}
\newlabel{pullup}{{2}{3}}
\newlabel{fig:pull-up-abierto}{{3a}{3}}
\newlabel{sub@fig:pull-up-abierto}{{a}{3}}
\newlabel{fig:pull-up-cerrado}{{3b}{3}}
\newlabel{sub@fig:pull-up-cerrado}{{b}{3}}
\@writefile{lof}{\contentsline {figure}{\numberline {3}{\ignorespaces Casos en switch abierto y cerrado\relax }}{3}\protected@file@percent }
\newlabel{fig:pull-up}{{3}{3}}
\@writefile{toc}{\contentsline {subsubsection}{\numberline {5.1.2}Resistencias Pull Down}{3}\protected@file@percent }
\@writefile{toc}{\contentsline {subsubsection}{\numberline {5.1.3}Valor de la resistencia}{3}\protected@file@percent }
\newlabel{fig:pull-down-abierto}{{4a}{4}}
\newlabel{sub@fig:pull-down-abierto}{{a}{4}}
\newlabel{fig:pull-down-cerrado}{{4b}{4}}
\newlabel{sub@fig:pull-down-cerrado}{{b}{4}}
\@writefile{lof}{\contentsline {figure}{\numberline {4}{\ignorespaces Casos en switch abierto y cerrado\relax }}{4}\protected@file@percent }
\newlabel{fig:pull-down}{{4}{4}}
\@writefile{toc}{\contentsline {section}{\numberline {6}Desarrollo}{4}\protected@file@percent }
\@writefile{toc}{\contentsline {subsection}{\numberline {6.1}Interruptor Sostenido}{4}\protected@file@percent }
\@writefile{lof}{\contentsline {figure}{\numberline {5}{\ignorespaces Circuito de trabajo sostenido\relax }}{4}\protected@file@percent }
\newlabel{fig:CircuitoSostenido}{{5}{4}}
\@writefile{toc}{\contentsline {subsection}{\numberline {6.2}Interruptores moment\IeC {\'a}neos}{4}\protected@file@percent }
\newlabel{fig:CircuitoAbiertoA}{{6a}{4}}
\newlabel{sub@fig:CircuitoAbiertoA}{{a}{4}}
\newlabel{fig:CircuitoAbiertoB}{{6b}{4}}
\newlabel{sub@fig:CircuitoAbiertoB}{{b}{4}}
\@writefile{lof}{\contentsline {figure}{\numberline {6}{\ignorespaces Circuito de acci\IeC {\'o}n moment\IeC {\'a}nea\relax }}{4}\protected@file@percent }
\newlabel{fig:CircuitoMoment\IeC {\'a}neo}{{6}{4}}
\@writefile{toc}{\contentsline {section}{\numberline {7}Resistores Pull UP y pull Down}{5}\protected@file@percent }
\@writefile{toc}{\contentsline {section}{\numberline {8}Compuerta NAND}{5}\protected@file@percent }
\@writefile{lof}{\contentsline {figure}{\numberline {7}{\ignorespaces Diagrama 74LS00\relax }}{5}\protected@file@percent }
\newlabel{fig:74LS00}{{7}{5}}
\@writefile{lot}{\contentsline {table}{\numberline {1}{\ignorespaces Comportamiento compuerta 74LS00\relax }}{5}\protected@file@percent }
\newlabel{tablaVerdad}{{1}{5}}
\@writefile{toc}{\contentsline {section}{\numberline {9}Cuestionario}{6}\protected@file@percent }
\@writefile{toc}{\contentsline {subsection}{\numberline {9.1}\IeC {\textquestiondown }Qu\IeC {\'e} es una protoboard?}{6}\protected@file@percent }
\@writefile{toc}{\contentsline {subsection}{\numberline {9.2}Menciona 3 buenos consejos para tener un buen uso de la protoboard.}{6}\protected@file@percent }
\@writefile{toc}{\contentsline {subsection}{\numberline {9.3}Caracter\IeC {\'\i }sticas de una Protoboard}{6}\protected@file@percent }
\@writefile{toc}{\contentsline {section}{\numberline {10}Conclusiones}{6}\protected@file@percent }
