\relax 
\catcode `"\active 
\catcode `<\active 
\catcode `>\active 
\@nameuse{es@quoting}
\select@language{spanish}
\@writefile{toc}{\select@language{spanish}}
\@writefile{lof}{\select@language{spanish}}
\@writefile{lot}{\select@language{spanish}}
\@writefile{toc}{\contentsline {section}{\numberline {1}Seguridad en la ejecuci\IeC {\'o}n}{1}}
\@writefile{toc}{\contentsline {section}{\numberline {2}Objetivos de aprendizaje}{1}}
\@writefile{toc}{\contentsline {section}{\numberline {3}Material y Equipo}{1}}
\@writefile{toc}{\contentsline {section}{\numberline {4}Actividad de investigaci\IeC {\'o}n previa}{1}}
\newlabel{aEq}{{1}{1}}
\@writefile{lof}{\contentsline {figure}{\numberline {1}{\ignorespaces Distribuci\IeC {\'o}n f\IeC {\'\i }sica de las compuertas\relax }}{2}}
\providecommand*\caption@xref[2]{\@setref\relax\@undefined{#1}}
\newlabel{subfig:KarnaugA}{{2a}{2}}
\newlabel{sub@subfig:KarnaugA}{{a}{2}}
\newlabel{subfig:KarnaugB}{{2b}{2}}
\newlabel{sub@subfig:KarnaugB}{{b}{2}}
\newlabel{subfig:KarnaugC}{{2c}{2}}
\newlabel{sub@subfig:KarnaugC}{{c}{2}}
\@writefile{lof}{\contentsline {figure}{\numberline {2}{\ignorespaces Mapas de Karnaugh para los segmentos $a$, $b$ y $c$\relax }}{2}}
\newlabel{fig:KarnaugABC}{{2}{2}}
\newlabel{bcEq}{{2}{2}}
\newlabel{dEq}{{3}{2}}
\newlabel{eEq}{{4}{2}}
\newlabel{subfig:KarnaugD}{{3a}{3}}
\newlabel{sub@subfig:KarnaugD}{{a}{3}}
\newlabel{subfig:KarnaugE}{{3b}{3}}
\newlabel{sub@subfig:KarnaugE}{{b}{3}}
\@writefile{lof}{\contentsline {figure}{\numberline {3}{\ignorespaces Mapas de Karnaugh para los segmentos $d$ y $e$\relax }}{3}}
\newlabel{fig:KarnaugDE}{{3}{3}}
\newlabel{subfig:KarnaugF}{{4a}{3}}
\newlabel{sub@subfig:KarnaugF}{{a}{3}}
\newlabel{subfig:KarnaugG}{{4b}{3}}
\newlabel{sub@subfig:KarnaugG}{{b}{3}}
\@writefile{lof}{\contentsline {figure}{\numberline {4}{\ignorespaces Mapas de Karnaugh para los segmentos $f$ y $g$\relax }}{3}}
\newlabel{fig:KarnaugFG}{{4}{3}}
\newlabel{fEq}{{5}{4}}
\newlabel{gEq}{{6}{4}}
