\relax 
\providecommand\hyper@newdestlabel[2]{}
\catcode `"\active 
\catcode `<\active 
\catcode `>\active 
\@nameuse{es@quoting}
\providecommand\HyperFirstAtBeginDocument{\AtBeginDocument}
\HyperFirstAtBeginDocument{\ifx\hyper@anchor\@undefined
\global\let\oldcontentsline\contentsline
\gdef\contentsline#1#2#3#4{\oldcontentsline{#1}{#2}{#3}}
\global\let\oldnewlabel\newlabel
\gdef\newlabel#1#2{\newlabelxx{#1}#2}
\gdef\newlabelxx#1#2#3#4#5#6{\oldnewlabel{#1}{{#2}{#3}}}
\AtEndDocument{\ifx\hyper@anchor\@undefined
\let\contentsline\oldcontentsline
\let\newlabel\oldnewlabel
\fi}
\fi}
\global\let\hyper@last\relax 
\gdef\HyperFirstAtBeginDocument#1{#1}
\providecommand\HyField@AuxAddToFields[1]{}
\providecommand\HyField@AuxAddToCoFields[2]{}
\babel@aux{spanish}{}
\citation{Brown}
\@writefile{toc}{\contentsline {section}{\numberline {1}Objetivos de aprendizaje}{3}{section.1}\protected@file@percent }
\@writefile{toc}{\contentsline {section}{\numberline {2}Introducci\IeC {\'o}n}{3}{section.2}\protected@file@percent }
\@writefile{toc}{\contentsline {subsection}{\numberline {2.1}Software utilizado}{3}{subsection.2.1}\protected@file@percent }
\citation{A.HuergoLuis2018}
\citation{Brown}
\@writefile{toc}{\contentsline {subsection}{\numberline {2.2}Licencia}{4}{subsection.2.2}\protected@file@percent }
\@writefile{toc}{\contentsline {subsection}{\numberline {2.3}Videos YouTube}{4}{subsection.2.3}\protected@file@percent }
\@writefile{toc}{\contentsline {section}{\numberline {3}Marco Te\IeC {\'o}rico}{4}{section.3}\protected@file@percent }
\@writefile{toc}{\contentsline {subsection}{\numberline {3.1}L\IeC {\'o}gica Digital}{4}{subsection.3.1}\protected@file@percent }
\@writefile{toc}{\contentsline {subsubsection}{\numberline {3.1.1}Compuerta NOT}{5}{subsubsection.3.1.1}\protected@file@percent }
\providecommand*\caption@xref[2]{\@setref\relax\@undefined{#1}}
\newlabel{fig:NOT}{{1a}{5}{Símbolo $NOT$\relax }{figure.caption.3}{}}
\newlabel{sub@fig:NOT}{{a}{5}{Símbolo $NOT$\relax }{figure.caption.3}{}}
\newlabel{tab:NOT}{{1b}{5}{Tabla de verdad $NOT$\relax }{figure.caption.3}{}}
\newlabel{sub@tab:NOT}{{b}{5}{Tabla de verdad $NOT$\relax }{figure.caption.3}{}}
\@writefile{lof}{\contentsline {figure}{\numberline {1}{\ignorespaces Compuerta $NOT$\relax }}{5}{figure.caption.3}\protected@file@percent }
\@writefile{toc}{\contentsline {subsubsection}{\numberline {3.1.2}Compuerta AND y NAND}{5}{subsubsection.3.1.2}\protected@file@percent }
\newlabel{fig:AND}{{2a}{5}{Compuerta $AND$\relax }{figure.caption.4}{}}
\newlabel{sub@fig:AND}{{a}{5}{Compuerta $AND$\relax }{figure.caption.4}{}}
\newlabel{fig:NAND}{{2b}{5}{Compuerta $NAND$\relax }{figure.caption.4}{}}
\newlabel{sub@fig:NAND}{{b}{5}{Compuerta $NAND$\relax }{figure.caption.4}{}}
\@writefile{lof}{\contentsline {figure}{\numberline {2}{\ignorespaces Compuertas $AND$ y $NAND$ \relax }}{5}{figure.caption.4}\protected@file@percent }
\@writefile{lot}{\contentsline {table}{\numberline {1}{\ignorespaces Tabla de verdad $AND$ y $NAND$\relax }}{5}{table.caption.5}\protected@file@percent }
\newlabel{tab:ANDyNAND}{{1}{5}{Tabla de verdad $AND$ y $NAND$\relax }{table.caption.5}{}}
\@writefile{toc}{\contentsline {subsubsection}{\numberline {3.1.3}Compuerta OR y NOR}{5}{subsubsection.3.1.3}\protected@file@percent }
\newlabel{fig:OR}{{3a}{6}{Compuerta $OR$\relax }{figure.caption.6}{}}
\newlabel{sub@fig:OR}{{a}{6}{Compuerta $OR$\relax }{figure.caption.6}{}}
\newlabel{fig:NOR}{{3b}{6}{Compuerta $NOR$\relax }{figure.caption.6}{}}
\newlabel{sub@fig:NOR}{{b}{6}{Compuerta $NOR$\relax }{figure.caption.6}{}}
\@writefile{lof}{\contentsline {figure}{\numberline {3}{\ignorespaces Compuertas $OR$ y $NOR$ \relax }}{6}{figure.caption.6}\protected@file@percent }
\@writefile{lot}{\contentsline {table}{\numberline {2}{\ignorespaces Tabla de verdad $OR$ y $NOR$\relax }}{6}{table.caption.7}\protected@file@percent }
\newlabel{tab:ORyNOR}{{2}{6}{Tabla de verdad $OR$ y $NOR$\relax }{table.caption.7}{}}
\@writefile{toc}{\contentsline {subsubsection}{\numberline {3.1.4}Compuerta XOR y XNOR}{6}{subsubsection.3.1.4}\protected@file@percent }
\newlabel{fig:XOR}{{4a}{6}{Compuerta $XOR$\relax }{figure.caption.8}{}}
\newlabel{sub@fig:XOR}{{a}{6}{Compuerta $XOR$\relax }{figure.caption.8}{}}
\newlabel{fig:XNOR}{{4b}{6}{Compuerta $XNOR$\relax }{figure.caption.8}{}}
\newlabel{sub@fig:XNOR}{{b}{6}{Compuerta $XNOR$\relax }{figure.caption.8}{}}
\@writefile{lof}{\contentsline {figure}{\numberline {4}{\ignorespaces Compuertas $XOR$ y $XNOR$ \relax }}{6}{figure.caption.8}\protected@file@percent }
\@writefile{lot}{\contentsline {table}{\numberline {3}{\ignorespaces Tabla de verdad $XOR$ y $XNOR$\relax }}{6}{table.caption.9}\protected@file@percent }
\newlabel{tab:XORyXNOR}{{3}{6}{Tabla de verdad $XOR$ y $XNOR$\relax }{table.caption.9}{}}
\citation{Physics2010}
\citation{A.HuergoLuis2018}
\@writefile{toc}{\contentsline {subsubsection}{\numberline {3.1.5}Flip Flop J K}{7}{subsubsection.3.1.5}\protected@file@percent }
\@writefile{lof}{\contentsline {figure}{\numberline {5}{\ignorespaces Flip Flop J-K\relax }}{7}{figure.caption.10}\protected@file@percent }
\newlabel{fig:FFJK}{{5}{7}{Flip Flop J-K\relax }{figure.caption.10}{}}
\@writefile{toc}{\contentsline {subsection}{\numberline {3.2}Suma Binaria}{7}{subsection.3.2}\protected@file@percent }
\newlabel{sumaBinariaBasica}{{6a}{7}{Reglas de suma aritmética en binario\relax }{figure.caption.11}{}}
\newlabel{sub@sumaBinariaBasica}{{a}{7}{Reglas de suma aritmética en binario\relax }{figure.caption.11}{}}
\newlabel{fig:sumaBinaria}{{6b}{7}{Tabla de verdad Suma binaria\relax }{figure.caption.11}{}}
\newlabel{sub@fig:sumaBinaria}{{b}{7}{Tabla de verdad Suma binaria\relax }{figure.caption.11}{}}
\@writefile{lof}{\contentsline {figure}{\numberline {6}{\ignorespaces Suma Binaria\relax }}{7}{figure.caption.11}\protected@file@percent }
\newlabel{funcionBoolBin}{{1}{7}{Suma Binaria}{equation.3.1}{}}
\citation{Numerico}
\newlabel{fig:diagramaFuncBool}{{7a}{8}{Diagrama Función booleana\relax }{figure.caption.12}{}}
\newlabel{sub@fig:diagramaFuncBool}{{a}{8}{Diagrama Función booleana\relax }{figure.caption.12}{}}
\newlabel{fig:xorHalfAdder}{{7b}{8}{Medio sumador con XOR\relax }{figure.caption.12}{}}
\newlabel{sub@fig:xorHalfAdder}{{b}{8}{Medio sumador con XOR\relax }{figure.caption.12}{}}
\@writefile{lof}{\contentsline {figure}{\numberline {7}{\ignorespaces Propuestas Medio Sumador\relax }}{8}{figure.caption.12}\protected@file@percent }
\newlabel{fig:diagramaMedioSumador}{{7}{8}{Propuestas Medio Sumador\relax }{figure.caption.12}{}}
\@writefile{toc}{\contentsline {subsection}{\numberline {3.3}Resta Binaria}{8}{subsection.3.3}\protected@file@percent }
\@writefile{toc}{\contentsline {subsubsection}{\numberline {3.3.1}Complemento a 1}{8}{subsubsection.3.3.1}\protected@file@percent }
\newlabel{C1}{{2}{8}{Complemento a 1}{equation.3.2}{}}
\citation{Numerico}
\@writefile{lof}{\contentsline {figure}{\numberline {8}{\ignorespaces Sumador Completo\relax }}{9}{figure.caption.13}\protected@file@percent }
\newlabel{fig:diagramaSumadorCompleto}{{8}{9}{Sumador Completo\relax }{figure.caption.13}{}}
\newlabel{N12}{{3}{9}{Complemento a 1}{equation.3.3}{}}
\newlabel{C1de12}{{5}{9}{Complemento a 1}{equation.3.5}{}}
\@writefile{toc}{\contentsline {subsubsection}{\numberline {3.3.2}Complemento a 2}{9}{subsubsection.3.3.2}\protected@file@percent }
\newlabel{C2}{{6}{9}{Complemento a 2}{equation.3.6}{}}
\newlabel{2doC2}{{7}{9}{Complemento a 2}{equation.3.7}{}}
\citation{Numerico}
\citation{mult}
\citation{divi}
\citation{Brown}
\@writefile{toc}{\contentsline {subsection}{\numberline {3.4}Multiplicaci\IeC {\'o}n}{10}{subsection.3.4}\protected@file@percent }
\@writefile{toc}{\contentsline {subsection}{\numberline {3.5}Divisi\IeC {\'o}n}{10}{subsection.3.5}\protected@file@percent }
\citation{Brown}
\citation{Brown}
\@writefile{toc}{\contentsline {section}{\numberline {4}Desarrollo}{11}{section.4}\protected@file@percent }
\@writefile{lof}{\contentsline {figure}{\numberline {9}{\ignorespaces Esquema de trabajo sobre prototipado $Brown$ p.15 \citep  {Brown}\relax }}{11}{figure.caption.14}\protected@file@percent }
\newlabel{fig:Prototipado}{{9}{11}{Esquema de trabajo sobre prototipado $Brown$ p.15 \citep {Brown}\relax }{figure.caption.14}{}}
\@writefile{toc}{\contentsline {section}{\numberline {5}Operaci\IeC {\'o}n ALU}{11}{section.5}\protected@file@percent }
\newlabel{sec:OperacionALU}{{5}{11}{Operación ALU}{section.5}{}}
\@writefile{lot}{\contentsline {table}{\numberline {4}{\ignorespaces Tabla de selecci\IeC {\'o}n de operaciones\relax }}{12}{table.caption.15}\protected@file@percent }
\newlabel{cuad:SelOp}{{4}{12}{Tabla de selección de operaciones\relax }{table.caption.15}{}}
\@writefile{lof}{\contentsline {figure}{\numberline {10}{\ignorespaces Tablero de operaci\IeC {\'o}n ALU\relax }}{12}{figure.caption.16}\protected@file@percent }
\newlabel{fig:tableroALU}{{10}{12}{Tablero de operación ALU\relax }{figure.caption.16}{}}
\@writefile{toc}{\contentsline {section}{\numberline {6}Sumador Restador}{12}{section.6}\protected@file@percent }
\newlabel{sec:SumadorRestador}{{6}{12}{Sumador Restador}{section.6}{}}
\@writefile{toc}{\contentsline {subsection}{\numberline {6.1}Operaci\IeC {\'o}n}{13}{subsection.6.1}\protected@file@percent }
\newlabel{subsec:OperacionSumRes}{{6.1}{13}{Operación}{subsection.6.1}{}}
\@writefile{toc}{\contentsline {subsection}{\numberline {6.2}Implementaci\IeC {\'o}n Complemento a 2}{13}{subsection.6.2}\protected@file@percent }
\@writefile{toc}{\contentsline {subsection}{\numberline {6.3}Implementaci\IeC {\'o}n del sumador Restador}{13}{subsection.6.3}\protected@file@percent }
\@writefile{lof}{\contentsline {figure}{\numberline {11}{\ignorespaces Implementaci\IeC {\'o}n Complemento a 2\relax }}{14}{figure.caption.17}\protected@file@percent }
\newlabel{fig:CircC2}{{11}{14}{Implementación Complemento a 2\relax }{figure.caption.17}{}}
\@writefile{lof}{\contentsline {figure}{\numberline {12}{\ignorespaces Circuito Sumador Restador\relax }}{15}{figure.caption.18}\protected@file@percent }
\newlabel{sumResNibble}{{12}{15}{Circuito Sumador Restador\relax }{figure.caption.18}{}}
\@writefile{lof}{\contentsline {figure}{\numberline {13}{\ignorespaces Manejo de Resultado para el Sumador Restador\relax }}{15}{figure.caption.19}\protected@file@percent }
\newlabel{SumResMSD}{{13}{15}{Manejo de Resultado para el Sumador Restador\relax }{figure.caption.19}{}}
\@writefile{toc}{\contentsline {section}{\numberline {7}Multiplicador}{15}{section.7}\protected@file@percent }
\newlabel{sec:Multiplicador}{{7}{15}{Multiplicador}{section.7}{}}
\@writefile{toc}{\contentsline {subsection}{\numberline {7.1}Implementaci\IeC {\'o}n Multiplicaci\IeC {\'o}n}{16}{subsection.7.1}\protected@file@percent }
\@writefile{lof}{\contentsline {figure}{\numberline {14}{\ignorespaces Multiplicador\relax }}{16}{figure.caption.20}\protected@file@percent }
\newlabel{MultNibble}{{14}{16}{Multiplicador\relax }{figure.caption.20}{}}
\@writefile{toc}{\contentsline {section}{\numberline {8}Divisor}{17}{section.8}\protected@file@percent }
\newlabel{sec:Divisor}{{8}{17}{Divisor}{section.8}{}}
\@writefile{toc}{\contentsline {subsection}{\numberline {8.1}Operaci\IeC {\'o}n}{17}{subsection.8.1}\protected@file@percent }
\newlabel{subsec:OperacionDivisor}{{8.1}{17}{Operación}{subsection.8.1}{}}
\@writefile{toc}{\contentsline {subsection}{\numberline {8.2}Algoritmo divisi\IeC {\'o}n}{17}{subsection.8.2}\protected@file@percent }
\@writefile{lot}{\contentsline {table}{\numberline {5}{\ignorespaces Ejemplo de divisi\IeC {\'o}n $\frac  {10}{4}$\relax }}{18}{table.caption.21}\protected@file@percent }
\newlabel{cuad:ejDiv}{{5}{18}{Ejemplo de división $\frac {10}{4}$\relax }{table.caption.21}{}}
\@writefile{toc}{\contentsline {subsection}{\numberline {8.3}Generador de Ciclo de M\IeC {\'a}quina}{18}{subsection.8.3}\protected@file@percent }
\newlabel{sec:generadorCicloMaquina}{{8.3}{18}{Generador de Ciclo de Máquina}{subsection.8.3}{}}
\@writefile{lof}{\contentsline {figure}{\numberline {15}{\ignorespaces Diagrama de Flujo Circuito Divisor\relax }}{19}{figure.caption.22}\protected@file@percent }
\newlabel{fig:DiagramaDivisor}{{15}{19}{Diagrama de Flujo Circuito Divisor\relax }{figure.caption.22}{}}
\@writefile{toc}{\contentsline {subsection}{\numberline {8.4}Memoria}{19}{subsection.8.4}\protected@file@percent }
\newlabel{sec:Memoria}{{8.4}{19}{Memoria}{subsection.8.4}{}}
\newlabel{fig:GeneradorCicloMaquina}{{16a}{20}{Generador Ciclo Maquina\relax }{figure.caption.23}{}}
\newlabel{sub@fig:GeneradorCicloMaquina}{{a}{20}{Generador Ciclo Maquina\relax }{figure.caption.23}{}}
\newlabel{fig:MemoriaDivisor}{{16b}{20}{Memoria Divisor\relax }{figure.caption.23}{}}
\newlabel{sub@fig:MemoriaDivisor}{{b}{20}{Memoria Divisor\relax }{figure.caption.23}{}}
\@writefile{lof}{\contentsline {figure}{\numberline {16}{\ignorespaces Subcircuitos Divisor\relax }}{20}{figure.caption.23}\protected@file@percent }
\newlabel{fig:subDivisor}{{16}{20}{Subcircuitos Divisor\relax }{figure.caption.23}{}}
\@writefile{toc}{\contentsline {subsection}{\numberline {8.5}Comparador}{20}{subsection.8.5}\protected@file@percent }
\newlabel{sec:Comparador}{{8.5}{20}{Comparador}{subsection.8.5}{}}
\newlabel{subfig:KarnaugMenor}{{17a}{21}{Mapa de Karnaugh para condición Menor\relax }{figure.caption.24}{}}
\newlabel{sub@subfig:KarnaugMenor}{{a}{21}{Mapa de Karnaugh para condición Menor\relax }{figure.caption.24}{}}
\newlabel{subfig:KarnaugIgual}{{17b}{21}{Mapa de Karnaugh para condición Igual\relax }{figure.caption.24}{}}
\newlabel{sub@subfig:KarnaugIgual}{{b}{21}{Mapa de Karnaugh para condición Igual\relax }{figure.caption.24}{}}
\newlabel{subfig:KarnaugMayor}{{17c}{21}{Mapa de Karnaugh para condición Mayor\relax }{figure.caption.24}{}}
\newlabel{sub@subfig:KarnaugMayor}{{c}{21}{Mapa de Karnaugh para condición Mayor\relax }{figure.caption.24}{}}
\@writefile{lof}{\contentsline {figure}{\numberline {17}{\ignorespaces Mapas de Karnaugh de comparador de 1 bit\relax }}{21}{figure.caption.24}\protected@file@percent }
\newlabel{fig:KarnaugComparador}{{17}{21}{Mapas de Karnaugh de comparador de 1 bit\relax }{figure.caption.24}{}}
\@writefile{lof}{\contentsline {figure}{\numberline {18}{\ignorespaces Comparador Nibble\relax }}{21}{figure.caption.25}\protected@file@percent }
\newlabel{comparadorNibble}{{18}{21}{Comparador Nibble\relax }{figure.caption.25}{}}
\@writefile{toc}{\contentsline {subsection}{\numberline {8.6}Contador}{22}{subsection.8.6}\protected@file@percent }
\newlabel{sec:Contador}{{8.6}{22}{Contador}{subsection.8.6}{}}
\@writefile{lof}{\contentsline {figure}{\numberline {19}{\ignorespaces Contador de 0 a 15\relax }}{22}{figure.caption.26}\protected@file@percent }
\newlabel{contador15}{{19}{22}{Contador de 0 a 15\relax }{figure.caption.26}{}}
\@writefile{toc}{\contentsline {subsection}{\numberline {8.7}Implementaci\IeC {\'o}n Final Divisi\IeC {\'o}n}{22}{subsection.8.7}\protected@file@percent }
\@writefile{lof}{\contentsline {figure}{\numberline {20}{\ignorespaces Divisor\relax }}{23}{figure.caption.27}\protected@file@percent }
\newlabel{DivisorNibble}{{20}{23}{Divisor\relax }{figure.caption.27}{}}
\@writefile{toc}{\contentsline {section}{\numberline {9}Seleccionador de Operaciones}{23}{section.9}\protected@file@percent }
\@writefile{lof}{\contentsline {figure}{\numberline {21}{\ignorespaces Seleccionador de Operaciones\relax }}{24}{figure.caption.28}\protected@file@percent }
\newlabel{SeleccionadorDeOperaciones}{{21}{24}{Seleccionador de Operaciones\relax }{figure.caption.28}{}}
\@writefile{toc}{\contentsline {section}{\numberline {10}Integraci\IeC {\'o}n de Circuitos}{24}{section.10}\protected@file@percent }
\@writefile{lof}{\contentsline {figure}{\numberline {22}{\ignorespaces ALUnibbleRTM\relax }}{25}{figure.caption.29}\protected@file@percent }
\newlabel{ALUnibbleRTM}{{22}{25}{ALUnibbleRTM\relax }{figure.caption.29}{}}
\bibstyle{plain}
\bibdata{Referencias.bib}
\bibcite{divi}{{1}{}{{}}{{}}}
\bibcite{mult}{{2}{}{{}}{{}}}
\bibcite{A.HuergoLuis2018}{{3}{}{{}}{{}}}
\bibcite{Brown}{{4}{}{{}}{{}}}
\bibcite{Numerico}{{5}{}{{}}{{}}}
\bibcite{Physics2010}{{6}{}{{}}{{}}}
\providecommand\NAT@force@numbers{}\NAT@force@numbers
\@writefile{toc}{\contentsline {section}{\numberline {11}Discusi\IeC {\'o}n}{26}{section.11}\protected@file@percent }
\@writefile{toc}{\contentsline {section}{\numberline {12}Conclusiones}{26}{section.12}\protected@file@percent }
