\babel@toc {spanish}{}
\contentsline {section}{\numberline {1}Seguridad en la ejecuci\IeC {\'o}n}{1}% 
\contentsline {section}{\numberline {2}Objetivos de aprendizaje}{1}% 
\contentsline {section}{\numberline {3}Material y Equipo}{1}% 
\contentsline {section}{\numberline {4}Introducci\IeC {\'o}n}{2}% 
\contentsline {section}{\numberline {5}Actividad de investigaci\IeC {\'o}n previa}{2}% 
\contentsline {section}{\numberline {6}Desarrollo}{2}% 
\contentsline {section}{\numberline {7}Cuestionario}{4}% 
\contentsline {subsection}{\numberline {7.1}\IeC {\textquestiondown }Qu\IeC {\'e} es una suma l\IeC {\'o}gica?}{4}% 
\contentsline {subsection}{\numberline {7.2}\IeC {\textquestiondown }Qu\IeC {\'e} es un producto l\IeC {\'o}gico?}{4}% 
\contentsline {subsection}{\numberline {7.3}\IeC {\textquestiondown }Qu\IeC {\'e} es una inversi\IeC {\'o}n l\IeC {\'o}gica?}{4}% 
\contentsline {section}{\numberline {8}Conclusiones}{4}% 
